{
  "kind": "collectionType",
  "info": {
    "name": "Category"
  },
  "options": {
    "increments": true,
    "timestamps": true,
    "draftAndPublish": true
  },
  "attributes": {
    "name": {
      "type": "string"
    }
  }
}
